{ 
	"protocolName": "JapaneseAuction", 
	"Auctioneer" :  {    "agentName": "1stAgent", 
						 "objectId" : "object2",
                         "initPrice": 10, 
                         "increment" : 3,
					     "waitingTime" :300
                       } , 
     "Bidders"	:    [{  "agentName": "2ndAgent",
                         "budget": 50
                         } ,
			            {  "agentName": "3rdAgent",
                           "budget": 50
                     } 
                        ] 
}